[
    {
        "name": "Named",
        "exampleRequest": "/v2/{endpoint}/",
        "exampleResponse": {
            "count": 248,
            "next": "$BASE_URL/v2/ability/?limit=20&offset=20",
            "previous": null,
            "results": [{
                "name": "stench",
                "url": "$BASE_URL/v2/ability/1/"
            }]
        },
        "responseModels": [
            {
                "name": "NamedAPIResourceList",
                "fields": [
                    {
                        "name": "count",
                        "description": "The total number of resources available from this API.",
                        "type": "integer"
                    },
                    {
                        "name": "next",
                        "description": "The URL for the next page in the list.",
                        "type": "string"
                    },
                    {
                        "name": "previous",
                        "description": "The URL for the previous page in the list.",
                        "type": "string"
                    },
                    {
                        "name": "results",
                        "description": "A list of named API resources.",
                        "type": {
                             "type": "list",
                             "of": "NamedAPIResource"
                         }
                    }
                ]
            }
        ]
    },
    {
        "name": "Unnamed",
        "exampleRequest": "/v2/{endpoint}/",
        "exampleResponse": {
            "count": 541,
            "next": "$BASE_URL/v2/evolution-chain?offset=20&limit=20",
            "previous": null,
            "results": [{
                "url": "$BASE_URL/v2/evolution-chain/1/"
            }]
        },
        "responseModels": [
            {
                "name": "APIResourceList",
                "fields": [
                    {
                        "name": "count",
                        "description": "The total number of resources available from this API.",
                        "type": "integer"
                    },
                    {
                        "name": "next",
                        "description": "The URL for the next page in the list.",
                        "type": "string"
                    },
                    {
                        "name": "previous",
                        "description": "The URL for the previous page in the list.",
                        "type": "string"
                    },
                    {
                        "name": "results",
                        "description": "A list of unnamed API resources.",
                        "type": {
                             "type": "list",
                             "of": "APIResource"
                         }
                    }
                ]
            }
        ]
    }
]
